-- Merging decision tree log ---
manifest
ADDED from /home/alex/PycharmProjects/object-detection-lite/datawiz-demo-app/app/src/main/AndroidManifest.xml:18:1-42:12
INJECTED from /home/alex/PycharmProjects/object-detection-lite/datawiz-demo-app/app/src/main/AndroidManifest.xml:18:1-42:12
INJECTED from /home/alex/PycharmProjects/object-detection-lite/datawiz-demo-app/app/src/main/AndroidManifest.xml:18:1-42:12
INJECTED from /home/alex/PycharmProjects/object-detection-lite/datawiz-demo-app/app/src/main/AndroidManifest.xml:18:1-42:12
MERGED from [com.android.support:design:25.2.0] /home/alex/.gradle/caches/transforms-1/files-1.1/design-25.2.0.aar/bed4fa3871635aa6663f5206789d03ea/AndroidManifest.xml:17:1-27:12
MERGED from [com.android.support:appcompat-v7:25.2.0] /home/alex/.gradle/caches/transforms-1/files-1.1/appcompat-v7-25.2.0.aar/9e58faf303b69f490d519323e1a76299/AndroidManifest.xml:17:1-27:12
MERGED from [com.android.support.constraint:constraint-layout:1.1.0] /home/alex/.gradle/caches/transforms-1/files-1.1/constraint-layout-1.1.0.aar/63477db4cd352be88ccdf9cc2156d2df/AndroidManifest.xml:2:1-11:12
MERGED from [com.android.support:support-v13:25.2.0] /home/alex/.gradle/caches/transforms-1/files-1.1/support-v13-25.2.0.aar/e2c13efe104ed2ccf953837ed0ffa9da/AndroidManifest.xml:17:1-27:12
MERGED from [com.android.support:animated-vector-drawable:25.2.0] /home/alex/.gradle/caches/transforms-1/files-1.1/animated-vector-drawable-25.2.0.aar/7db2e5e7b6b9530345b802e2d36e71c9/AndroidManifest.xml:17:1-24:12
MERGED from [com.android.support:support-vector-drawable:25.2.0] /home/alex/.gradle/caches/transforms-1/files-1.1/support-vector-drawable-25.2.0.aar/a605d16158603154323c31bacb821e62/AndroidManifest.xml:17:1-25:12
MERGED from [com.android.support:recyclerview-v7:25.2.0] /home/alex/.gradle/caches/transforms-1/files-1.1/recyclerview-v7-25.2.0.aar/413344350be0c7eef376d0defa378792/AndroidManifest.xml:17:1-22:12
MERGED from [com.android.support:transition:25.2.0] /home/alex/.gradle/caches/transforms-1/files-1.1/transition-25.2.0.aar/033ba5f57ab218da2071f426492dc5a8/AndroidManifest.xml:17:1-24:12
MERGED from [com.android.support:support-v4:25.2.0] /home/alex/.gradle/caches/transforms-1/files-1.1/support-v4-25.2.0.aar/55f805cf26ae3de657ba1c7e92053c17/AndroidManifest.xml:17:1-27:12
MERGED from [com.android.support:support-fragment:25.2.0] /home/alex/.gradle/caches/transforms-1/files-1.1/support-fragment-25.2.0.aar/0cb50337f6cfa12a35c711e4b0024f3f/AndroidManifest.xml:17:1-27:12
MERGED from [com.android.support:support-media-compat:25.2.0] /home/alex/.gradle/caches/transforms-1/files-1.1/support-media-compat-25.2.0.aar/f4bf0694681ce272794eaaecd017fc8a/AndroidManifest.xml:17:1-27:12
MERGED from [com.android.support:support-core-utils:25.2.0] /home/alex/.gradle/caches/transforms-1/files-1.1/support-core-utils-25.2.0.aar/b07ca13c17fe9aa952d4177d48f74f67/AndroidManifest.xml:17:1-27:12
MERGED from [com.android.support:support-core-ui:25.2.0] /home/alex/.gradle/caches/transforms-1/files-1.1/support-core-ui-25.2.0.aar/50f27cdc57b3eb706ebeedd96cc4c7a7/AndroidManifest.xml:17:1-27:12
MERGED from [com.android.support:support-compat:25.2.0] /home/alex/.gradle/caches/transforms-1/files-1.1/support-compat-25.2.0.aar/111a7608af63346272f3ff43b162b02e/AndroidManifest.xml:17:1-27:12
MERGED from [org.tensorflow:tensorflow-lite:1.10.0] /home/alex/.gradle/caches/transforms-1/files-1.1/tensorflow-lite-1.10.0.aar/546580e30e1875848097426e7b379e20/AndroidManifest.xml:2:1-6:12
INJECTED from /home/alex/PycharmProjects/object-detection-lite/datawiz-demo-app/app/src/main/AndroidManifest.xml:18:1-42:12
INJECTED from /home/alex/PycharmProjects/object-detection-lite/datawiz-demo-app/app/src/main/AndroidManifest.xml:18:1-42:12
INJECTED from /home/alex/PycharmProjects/object-detection-lite/datawiz-demo-app/app/src/main/AndroidManifest.xml:18:1-42:12
	package
		ADDED from /home/alex/PycharmProjects/object-detection-lite/datawiz-demo-app/app/src/main/AndroidManifest.xml:19:5-51
		INJECTED from /home/alex/PycharmProjects/object-detection-lite/datawiz-demo-app/app/src/main/AndroidManifest.xml
		INJECTED from /home/alex/PycharmProjects/object-detection-lite/datawiz-demo-app/app/src/main/AndroidManifest.xml
	android:versionName
		INJECTED from /home/alex/PycharmProjects/object-detection-lite/datawiz-demo-app/app/src/main/AndroidManifest.xml
		ADDED from /home/alex/PycharmProjects/object-detection-lite/datawiz-demo-app/app/src/main/AndroidManifest.xml:18:1-42:12
		INJECTED from /home/alex/PycharmProjects/object-detection-lite/datawiz-demo-app/app/src/main/AndroidManifest.xml
	android:versionCode
		INJECTED from /home/alex/PycharmProjects/object-detection-lite/datawiz-demo-app/app/src/main/AndroidManifest.xml
		ADDED from /home/alex/PycharmProjects/object-detection-lite/datawiz-demo-app/app/src/main/AndroidManifest.xml:18:1-42:12
		INJECTED from /home/alex/PycharmProjects/object-detection-lite/datawiz-demo-app/app/src/main/AndroidManifest.xml
	xmlns:android
		ADDED from /home/alex/PycharmProjects/object-detection-lite/datawiz-demo-app/app/src/main/AndroidManifest.xml:18:11-69
uses-permission#android.permission.CAMERA
ADDED from /home/alex/PycharmProjects/object-detection-lite/datawiz-demo-app/app/src/main/AndroidManifest.xml:21:5-65
	android:name
		ADDED from /home/alex/PycharmProjects/object-detection-lite/datawiz-demo-app/app/src/main/AndroidManifest.xml:21:22-62
uses-feature#android.hardware.camera
ADDED from /home/alex/PycharmProjects/object-detection-lite/datawiz-demo-app/app/src/main/AndroidManifest.xml:23:5-60
	android:name
		ADDED from /home/alex/PycharmProjects/object-detection-lite/datawiz-demo-app/app/src/main/AndroidManifest.xml:23:19-57
uses-feature#android.hardware.camera.autofocus
ADDED from /home/alex/PycharmProjects/object-detection-lite/datawiz-demo-app/app/src/main/AndroidManifest.xml:24:5-70
	android:name
		ADDED from /home/alex/PycharmProjects/object-detection-lite/datawiz-demo-app/app/src/main/AndroidManifest.xml:24:19-67
uses-sdk
ADDED from /home/alex/PycharmProjects/object-detection-lite/datawiz-demo-app/app/src/main/AndroidManifest.xml:26:5-44
INJECTED from /home/alex/PycharmProjects/object-detection-lite/datawiz-demo-app/app/src/main/AndroidManifest.xml:26:5-44
INJECTED from /home/alex/PycharmProjects/object-detection-lite/datawiz-demo-app/app/src/main/AndroidManifest.xml:26:5-44
MERGED from [com.android.support:design:25.2.0] /home/alex/.gradle/caches/transforms-1/files-1.1/design-25.2.0.aar/bed4fa3871635aa6663f5206789d03ea/AndroidManifest.xml:21:5-23:62
MERGED from [com.android.support:design:25.2.0] /home/alex/.gradle/caches/transforms-1/files-1.1/design-25.2.0.aar/bed4fa3871635aa6663f5206789d03ea/AndroidManifest.xml:21:5-23:62
MERGED from [com.android.support:appcompat-v7:25.2.0] /home/alex/.gradle/caches/transforms-1/files-1.1/appcompat-v7-25.2.0.aar/9e58faf303b69f490d519323e1a76299/AndroidManifest.xml:21:5-23:78
MERGED from [com.android.support:appcompat-v7:25.2.0] /home/alex/.gradle/caches/transforms-1/files-1.1/appcompat-v7-25.2.0.aar/9e58faf303b69f490d519323e1a76299/AndroidManifest.xml:21:5-23:78
MERGED from [com.android.support.constraint:constraint-layout:1.1.0] /home/alex/.gradle/caches/transforms-1/files-1.1/constraint-layout-1.1.0.aar/63477db4cd352be88ccdf9cc2156d2df/AndroidManifest.xml:5:5-7:41
MERGED from [com.android.support.constraint:constraint-layout:1.1.0] /home/alex/.gradle/caches/transforms-1/files-1.1/constraint-layout-1.1.0.aar/63477db4cd352be88ccdf9cc2156d2df/AndroidManifest.xml:5:5-7:41
MERGED from [com.android.support:support-v13:25.2.0] /home/alex/.gradle/caches/transforms-1/files-1.1/support-v13-25.2.0.aar/e2c13efe104ed2ccf953837ed0ffa9da/AndroidManifest.xml:21:5-23:55
MERGED from [com.android.support:support-v13:25.2.0] /home/alex/.gradle/caches/transforms-1/files-1.1/support-v13-25.2.0.aar/e2c13efe104ed2ccf953837ed0ffa9da/AndroidManifest.xml:21:5-23:55
MERGED from [com.android.support:animated-vector-drawable:25.2.0] /home/alex/.gradle/caches/transforms-1/files-1.1/animated-vector-drawable-25.2.0.aar/7db2e5e7b6b9530345b802e2d36e71c9/AndroidManifest.xml:20:5-44
MERGED from [com.android.support:animated-vector-drawable:25.2.0] /home/alex/.gradle/caches/transforms-1/files-1.1/animated-vector-drawable-25.2.0.aar/7db2e5e7b6b9530345b802e2d36e71c9/AndroidManifest.xml:20:5-44
MERGED from [com.android.support:support-vector-drawable:25.2.0] /home/alex/.gradle/caches/transforms-1/files-1.1/support-vector-drawable-25.2.0.aar/a605d16158603154323c31bacb821e62/AndroidManifest.xml:21:5-43
MERGED from [com.android.support:support-vector-drawable:25.2.0] /home/alex/.gradle/caches/transforms-1/files-1.1/support-vector-drawable-25.2.0.aar/a605d16158603154323c31bacb821e62/AndroidManifest.xml:21:5-43
MERGED from [com.android.support:recyclerview-v7:25.2.0] /home/alex/.gradle/caches/transforms-1/files-1.1/recyclerview-v7-25.2.0.aar/413344350be0c7eef376d0defa378792/AndroidManifest.xml:20:5-43
MERGED from [com.android.support:recyclerview-v7:25.2.0] /home/alex/.gradle/caches/transforms-1/files-1.1/recyclerview-v7-25.2.0.aar/413344350be0c7eef376d0defa378792/AndroidManifest.xml:20:5-43
MERGED from [com.android.support:transition:25.2.0] /home/alex/.gradle/caches/transforms-1/files-1.1/transition-25.2.0.aar/033ba5f57ab218da2071f426492dc5a8/AndroidManifest.xml:20:5-44
MERGED from [com.android.support:transition:25.2.0] /home/alex/.gradle/caches/transforms-1/files-1.1/transition-25.2.0.aar/033ba5f57ab218da2071f426492dc5a8/AndroidManifest.xml:20:5-44
MERGED from [com.android.support:support-v4:25.2.0] /home/alex/.gradle/caches/transforms-1/files-1.1/support-v4-25.2.0.aar/55f805cf26ae3de657ba1c7e92053c17/AndroidManifest.xml:21:5-23:54
MERGED from [com.android.support:support-v4:25.2.0] /home/alex/.gradle/caches/transforms-1/files-1.1/support-v4-25.2.0.aar/55f805cf26ae3de657ba1c7e92053c17/AndroidManifest.xml:21:5-23:54
MERGED from [com.android.support:support-fragment:25.2.0] /home/alex/.gradle/caches/transforms-1/files-1.1/support-fragment-25.2.0.aar/0cb50337f6cfa12a35c711e4b0024f3f/AndroidManifest.xml:21:5-23:60
MERGED from [com.android.support:support-fragment:25.2.0] /home/alex/.gradle/caches/transforms-1/files-1.1/support-fragment-25.2.0.aar/0cb50337f6cfa12a35c711e4b0024f3f/AndroidManifest.xml:21:5-23:60
MERGED from [com.android.support:support-media-compat:25.2.0] /home/alex/.gradle/caches/transforms-1/files-1.1/support-media-compat-25.2.0.aar/f4bf0694681ce272794eaaecd017fc8a/AndroidManifest.xml:21:5-23:63
MERGED from [com.android.support:support-media-compat:25.2.0] /home/alex/.gradle/caches/transforms-1/files-1.1/support-media-compat-25.2.0.aar/f4bf0694681ce272794eaaecd017fc8a/AndroidManifest.xml:21:5-23:63
MERGED from [com.android.support:support-core-utils:25.2.0] /home/alex/.gradle/caches/transforms-1/files-1.1/support-core-utils-25.2.0.aar/b07ca13c17fe9aa952d4177d48f74f67/AndroidManifest.xml:21:5-23:61
MERGED from [com.android.support:support-core-utils:25.2.0] /home/alex/.gradle/caches/transforms-1/files-1.1/support-core-utils-25.2.0.aar/b07ca13c17fe9aa952d4177d48f74f67/AndroidManifest.xml:21:5-23:61
MERGED from [com.android.support:support-core-ui:25.2.0] /home/alex/.gradle/caches/transforms-1/files-1.1/support-core-ui-25.2.0.aar/50f27cdc57b3eb706ebeedd96cc4c7a7/AndroidManifest.xml:21:5-23:58
MERGED from [com.android.support:support-core-ui:25.2.0] /home/alex/.gradle/caches/transforms-1/files-1.1/support-core-ui-25.2.0.aar/50f27cdc57b3eb706ebeedd96cc4c7a7/AndroidManifest.xml:21:5-23:58
MERGED from [com.android.support:support-compat:25.2.0] /home/alex/.gradle/caches/transforms-1/files-1.1/support-compat-25.2.0.aar/111a7608af63346272f3ff43b162b02e/AndroidManifest.xml:21:5-23:58
MERGED from [com.android.support:support-compat:25.2.0] /home/alex/.gradle/caches/transforms-1/files-1.1/support-compat-25.2.0.aar/111a7608af63346272f3ff43b162b02e/AndroidManifest.xml:21:5-23:58
INJECTED from /home/alex/PycharmProjects/object-detection-lite/datawiz-demo-app/app/src/main/AndroidManifest.xml:26:5-44
INJECTED from /home/alex/PycharmProjects/object-detection-lite/datawiz-demo-app/app/src/main/AndroidManifest.xml:26:5-44
	tools:overrideLibrary
		ADDED from [com.android.support:design:25.2.0] /home/alex/.gradle/caches/transforms-1/files-1.1/design-25.2.0.aar/bed4fa3871635aa6663f5206789d03ea/AndroidManifest.xml:23:9-59
	android:targetSdkVersion
		INJECTED from /home/alex/PycharmProjects/object-detection-lite/datawiz-demo-app/app/src/main/AndroidManifest.xml
		ADDED from /home/alex/PycharmProjects/object-detection-lite/datawiz-demo-app/app/src/main/AndroidManifest.xml:26:5-44
		INJECTED from /home/alex/PycharmProjects/object-detection-lite/datawiz-demo-app/app/src/main/AndroidManifest.xml
	android:minSdkVersion
		ADDED from /home/alex/PycharmProjects/object-detection-lite/datawiz-demo-app/app/src/main/AndroidManifest.xml:26:15-41
		INJECTED from /home/alex/PycharmProjects/object-detection-lite/datawiz-demo-app/app/src/main/AndroidManifest.xml
		INJECTED from /home/alex/PycharmProjects/object-detection-lite/datawiz-demo-app/app/src/main/AndroidManifest.xml
application
ADDED from /home/alex/PycharmProjects/object-detection-lite/datawiz-demo-app/app/src/main/AndroidManifest.xml:28:5-40:19
MERGED from [com.android.support:design:25.2.0] /home/alex/.gradle/caches/transforms-1/files-1.1/design-25.2.0.aar/bed4fa3871635aa6663f5206789d03ea/AndroidManifest.xml:25:5-20
MERGED from [com.android.support:design:25.2.0] /home/alex/.gradle/caches/transforms-1/files-1.1/design-25.2.0.aar/bed4fa3871635aa6663f5206789d03ea/AndroidManifest.xml:25:5-20
MERGED from [com.android.support:appcompat-v7:25.2.0] /home/alex/.gradle/caches/transforms-1/files-1.1/appcompat-v7-25.2.0.aar/9e58faf303b69f490d519323e1a76299/AndroidManifest.xml:25:5-20
MERGED from [com.android.support:appcompat-v7:25.2.0] /home/alex/.gradle/caches/transforms-1/files-1.1/appcompat-v7-25.2.0.aar/9e58faf303b69f490d519323e1a76299/AndroidManifest.xml:25:5-20
MERGED from [com.android.support.constraint:constraint-layout:1.1.0] /home/alex/.gradle/caches/transforms-1/files-1.1/constraint-layout-1.1.0.aar/63477db4cd352be88ccdf9cc2156d2df/AndroidManifest.xml:9:5-20
MERGED from [com.android.support.constraint:constraint-layout:1.1.0] /home/alex/.gradle/caches/transforms-1/files-1.1/constraint-layout-1.1.0.aar/63477db4cd352be88ccdf9cc2156d2df/AndroidManifest.xml:9:5-20
MERGED from [com.android.support:support-v13:25.2.0] /home/alex/.gradle/caches/transforms-1/files-1.1/support-v13-25.2.0.aar/e2c13efe104ed2ccf953837ed0ffa9da/AndroidManifest.xml:25:5-20
MERGED from [com.android.support:support-v13:25.2.0] /home/alex/.gradle/caches/transforms-1/files-1.1/support-v13-25.2.0.aar/e2c13efe104ed2ccf953837ed0ffa9da/AndroidManifest.xml:25:5-20
MERGED from [com.android.support:animated-vector-drawable:25.2.0] /home/alex/.gradle/caches/transforms-1/files-1.1/animated-vector-drawable-25.2.0.aar/7db2e5e7b6b9530345b802e2d36e71c9/AndroidManifest.xml:22:5-20
MERGED from [com.android.support:animated-vector-drawable:25.2.0] /home/alex/.gradle/caches/transforms-1/files-1.1/animated-vector-drawable-25.2.0.aar/7db2e5e7b6b9530345b802e2d36e71c9/AndroidManifest.xml:22:5-20
MERGED from [com.android.support:support-vector-drawable:25.2.0] /home/alex/.gradle/caches/transforms-1/files-1.1/support-vector-drawable-25.2.0.aar/a605d16158603154323c31bacb821e62/AndroidManifest.xml:23:5-20
MERGED from [com.android.support:support-vector-drawable:25.2.0] /home/alex/.gradle/caches/transforms-1/files-1.1/support-vector-drawable-25.2.0.aar/a605d16158603154323c31bacb821e62/AndroidManifest.xml:23:5-20
MERGED from [com.android.support:transition:25.2.0] /home/alex/.gradle/caches/transforms-1/files-1.1/transition-25.2.0.aar/033ba5f57ab218da2071f426492dc5a8/AndroidManifest.xml:22:5-20
MERGED from [com.android.support:transition:25.2.0] /home/alex/.gradle/caches/transforms-1/files-1.1/transition-25.2.0.aar/033ba5f57ab218da2071f426492dc5a8/AndroidManifest.xml:22:5-20
MERGED from [com.android.support:support-v4:25.2.0] /home/alex/.gradle/caches/transforms-1/files-1.1/support-v4-25.2.0.aar/55f805cf26ae3de657ba1c7e92053c17/AndroidManifest.xml:25:5-20
MERGED from [com.android.support:support-v4:25.2.0] /home/alex/.gradle/caches/transforms-1/files-1.1/support-v4-25.2.0.aar/55f805cf26ae3de657ba1c7e92053c17/AndroidManifest.xml:25:5-20
MERGED from [com.android.support:support-fragment:25.2.0] /home/alex/.gradle/caches/transforms-1/files-1.1/support-fragment-25.2.0.aar/0cb50337f6cfa12a35c711e4b0024f3f/AndroidManifest.xml:25:5-20
MERGED from [com.android.support:support-fragment:25.2.0] /home/alex/.gradle/caches/transforms-1/files-1.1/support-fragment-25.2.0.aar/0cb50337f6cfa12a35c711e4b0024f3f/AndroidManifest.xml:25:5-20
MERGED from [com.android.support:support-media-compat:25.2.0] /home/alex/.gradle/caches/transforms-1/files-1.1/support-media-compat-25.2.0.aar/f4bf0694681ce272794eaaecd017fc8a/AndroidManifest.xml:25:5-20
MERGED from [com.android.support:support-media-compat:25.2.0] /home/alex/.gradle/caches/transforms-1/files-1.1/support-media-compat-25.2.0.aar/f4bf0694681ce272794eaaecd017fc8a/AndroidManifest.xml:25:5-20
MERGED from [com.android.support:support-core-utils:25.2.0] /home/alex/.gradle/caches/transforms-1/files-1.1/support-core-utils-25.2.0.aar/b07ca13c17fe9aa952d4177d48f74f67/AndroidManifest.xml:25:5-20
MERGED from [com.android.support:support-core-utils:25.2.0] /home/alex/.gradle/caches/transforms-1/files-1.1/support-core-utils-25.2.0.aar/b07ca13c17fe9aa952d4177d48f74f67/AndroidManifest.xml:25:5-20
MERGED from [com.android.support:support-core-ui:25.2.0] /home/alex/.gradle/caches/transforms-1/files-1.1/support-core-ui-25.2.0.aar/50f27cdc57b3eb706ebeedd96cc4c7a7/AndroidManifest.xml:25:5-20
MERGED from [com.android.support:support-core-ui:25.2.0] /home/alex/.gradle/caches/transforms-1/files-1.1/support-core-ui-25.2.0.aar/50f27cdc57b3eb706ebeedd96cc4c7a7/AndroidManifest.xml:25:5-20
MERGED from [com.android.support:support-compat:25.2.0] /home/alex/.gradle/caches/transforms-1/files-1.1/support-compat-25.2.0.aar/111a7608af63346272f3ff43b162b02e/AndroidManifest.xml:25:5-20
MERGED from [com.android.support:support-compat:25.2.0] /home/alex/.gradle/caches/transforms-1/files-1.1/support-compat-25.2.0.aar/111a7608af63346272f3ff43b162b02e/AndroidManifest.xml:25:5-20
MERGED from [org.tensorflow:tensorflow-lite:1.10.0] /home/alex/.gradle/caches/transforms-1/files-1.1/tensorflow-lite-1.10.0.aar/546580e30e1875848097426e7b379e20/AndroidManifest.xml:4:5-5:19
MERGED from [org.tensorflow:tensorflow-lite:1.10.0] /home/alex/.gradle/caches/transforms-1/files-1.1/tensorflow-lite-1.10.0.aar/546580e30e1875848097426e7b379e20/AndroidManifest.xml:4:5-5:19
	android:label
		ADDED from /home/alex/PycharmProjects/object-detection-lite/datawiz-demo-app/app/src/main/AndroidManifest.xml:29:9-41
	android:icon
		ADDED from /home/alex/PycharmProjects/object-detection-lite/datawiz-demo-app/app/src/main/AndroidManifest.xml:30:9-45
	android:allowBackup
		ADDED from /home/alex/PycharmProjects/object-detection-lite/datawiz-demo-app/app/src/main/AndroidManifest.xml:28:18-44
	android:theme
		ADDED from /home/alex/PycharmProjects/object-detection-lite/datawiz-demo-app/app/src/main/AndroidManifest.xml:31:9-45
activity#com.example.android.tflitecamerademo.CameraActivity
ADDED from /home/alex/PycharmProjects/object-detection-lite/datawiz-demo-app/app/src/main/AndroidManifest.xml:33:9-39:20
	android:label
		ADDED from /home/alex/PycharmProjects/object-detection-lite/datawiz-demo-app/app/src/main/AndroidManifest.xml:34:19-51
	android:name
		ADDED from /home/alex/PycharmProjects/object-detection-lite/datawiz-demo-app/app/src/main/AndroidManifest.xml:33:19-85
intent-filter#android.intent.action.MAIN+android.intent.category.LAUNCHER
ADDED from /home/alex/PycharmProjects/object-detection-lite/datawiz-demo-app/app/src/main/AndroidManifest.xml:35:13-38:29
action#android.intent.action.MAIN
ADDED from /home/alex/PycharmProjects/object-detection-lite/datawiz-demo-app/app/src/main/AndroidManifest.xml:36:17-69
	android:name
		ADDED from /home/alex/PycharmProjects/object-detection-lite/datawiz-demo-app/app/src/main/AndroidManifest.xml:36:25-66
category#android.intent.category.LAUNCHER
ADDED from /home/alex/PycharmProjects/object-detection-lite/datawiz-demo-app/app/src/main/AndroidManifest.xml:37:17-77
	android:name
		ADDED from /home/alex/PycharmProjects/object-detection-lite/datawiz-demo-app/app/src/main/AndroidManifest.xml:37:27-74
uses-permission#android.permission.WRITE_EXTERNAL_STORAGE
IMPLIED from /home/alex/PycharmProjects/object-detection-lite/datawiz-demo-app/app/src/main/AndroidManifest.xml:18:1-42:12 reason: org.tensorflow.lite has a targetSdkVersion < 4
uses-permission#android.permission.READ_PHONE_STATE
IMPLIED from /home/alex/PycharmProjects/object-detection-lite/datawiz-demo-app/app/src/main/AndroidManifest.xml:18:1-42:12 reason: org.tensorflow.lite has a targetSdkVersion < 4
uses-permission#android.permission.READ_EXTERNAL_STORAGE
IMPLIED from /home/alex/PycharmProjects/object-detection-lite/datawiz-demo-app/app/src/main/AndroidManifest.xml:18:1-42:12 reason: org.tensorflow.lite requested WRITE_EXTERNAL_STORAGE
